{
    "modules": [],
    "properties": {
        "backendModules": [],
        "description": "Template Extension f\u00fcr das Videotraining",
        "emConf": {
            "category": "templates",
            "custom_category": "",
            "dependsOn": "typo3 => 8.7.0-8.7.99\n",
            "disableLocalization": false,
            "disableVersioning": false,
            "skipGenerateDocumentationTemplate": false,
            "sourceLanguage": "en",
            "state": "alpha",
            "targetVersion": "8.6.0-8.6.99",
            "version": "1.0.0"
        },
        "extensionKey": "typo38videotraining",
        "name": "TYPO3 8 Videotraining Template",
        "originalExtensionKey": "",
        "originalVendorName": "",
        "persons": [
            {
                "company": "",
                "email": "",
                "name": "Wolfgang Wagner",
                "role": "Developer"
            }
        ],
        "plugins": [],
        "vendorName": "Wwagner"
    },
    "wires": [],
    "log": {
        "last_modified": "2017-04-26 11:01",
        "extension_builder_version": "8.6.0",
        "be_user": "Wolfgang Wagner (1)"
    }
}